-- Merging decision tree log ---
manifest
ADDED from C:\Users\Lwalt\workspace\3rd Year Project\Old\1. Decoder test\MLKit\quickstart-android\mlkit\app\src\main\AndroidManifest.xml:2:1-18:12
INJECTED from C:\Users\Lwalt\workspace\3rd Year Project\Old\1. Decoder test\MLKit\quickstart-android\mlkit\app\src\main\AndroidManifest.xml:2:1-18:12
INJECTED from C:\Users\Lwalt\workspace\3rd Year Project\Old\1. Decoder test\MLKit\quickstart-android\mlkit\app\src\main\AndroidManifest.xml:2:1-18:12
INJECTED from C:\Users\Lwalt\workspace\3rd Year Project\Old\1. Decoder test\MLKit\quickstart-android\mlkit\app\src\main\AndroidManifest.xml:2:1-18:12
MERGED from [com.android.support:design:28.0.0] C:\Users\Lwalt\.gradle\caches\transforms-1\files-1.1\design-28.0.0.aar\c9997e958427f828741236d0198cb896\AndroidManifest.xml:17:1-24:12
MERGED from [com.android.support:appcompat-v7:28.0.0] C:\Users\Lwalt\.gradle\caches\transforms-1\files-1.1\appcompat-v7-28.0.0.aar\539733e2c539647bd587533f4cb0523f\AndroidManifest.xml:17:1-22:12
MERGED from [com.google.firebase:firebase-ml-vision:18.0.2] C:\Users\Lwalt\.gradle\caches\transforms-1\files-1.1\firebase-ml-vision-18.0.2.aar\da36d813801bb2b62bdeda0250411041\AndroidManifest.xml:2:1-8:12
MERGED from [com.google.firebase:firebase-ml-vision-image-label-model:17.0.2] C:\Users\Lwalt\.gradle\caches\transforms-1\files-1.1\firebase-ml-vision-image-label-model-17.0.2.aar\0389b4491f1ca0bf088a37b254bb774e\AndroidManifest.xml:2:1-9:12
MERGED from [com.google.firebase:firebase-ml-vision-face-model:17.0.2] C:\Users\Lwalt\.gradle\caches\transforms-1\files-1.1\firebase-ml-vision-face-model-17.0.2.aar\9ff7f2d90632a06fa24f368b0497802b\AndroidManifest.xml:2:1-9:12
MERGED from [com.google.firebase:firebase-ml-model-interpreter:16.2.4] C:\Users\Lwalt\.gradle\caches\transforms-1\files-1.1\firebase-ml-model-interpreter-16.2.4.aar\dd843d99408367fbf6d4a0a16488afd6\AndroidManifest.xml:2:1-8:12
MERGED from [com.google.android.gms:play-services-auth-base:16.0.0] C:\Users\Lwalt\.gradle\caches\transforms-1\files-1.1\play-services-auth-base-16.0.0.aar\e966741612a1e9edb4934084a548fdbf\AndroidManifest.xml:2:1-7:12
MERGED from [com.google.android.gms:play-services-vision:17.0.2] C:\Users\Lwalt\.gradle\caches\transforms-1\files-1.1\play-services-vision-17.0.2.aar\56aedc00508630c655e121a588ed9992\AndroidManifest.xml:2:1-9:12
MERGED from [com.google.android.gms:play-services-vision-image-label:17.0.2] C:\Users\Lwalt\.gradle\caches\transforms-1\files-1.1\play-services-vision-image-label-17.0.2.aar\a158b9744f9610ac2b783986875eef30\AndroidManifest.xml:2:1-9:12
MERGED from [com.google.android.gms:play-services-vision-common:17.0.2] C:\Users\Lwalt\.gradle\caches\transforms-1\files-1.1\play-services-vision-common-17.0.2.aar\21c86c619c7e211b3c4ab73528dae77f\AndroidManifest.xml:2:1-9:12
MERGED from [com.google.firebase:firebase-ml-common:16.1.6] C:\Users\Lwalt\.gradle\caches\transforms-1\files-1.1\firebase-ml-common-16.1.6.aar\627d989d4ac873ea14033d44df68ff93\AndroidManifest.xml:2:1-8:12
MERGED from [com.google.android.gms:play-services-clearcut:16.0.0] C:\Users\Lwalt\.gradle\caches\transforms-1\files-1.1\play-services-clearcut-16.0.0.aar\71a921c4839edecbfc52d7df84d20d7a\AndroidManifest.xml:17:1-24:12
MERGED from [com.google.android.gms:play-services-flags:16.0.1] C:\Users\Lwalt\.gradle\caches\transforms-1\files-1.1\play-services-flags-16.0.1.aar\d7117b29bf49a08f77c26937f0b43a28\AndroidManifest.xml:17:1-22:12
MERGED from [com.google.android.gms:play-services-phenotype:16.0.0] C:\Users\Lwalt\.gradle\caches\transforms-1\files-1.1\play-services-phenotype-16.0.0.aar\8c533ab30fc3ce837230e7c0b3bf29d7\AndroidManifest.xml:17:1-24:12
MERGED from [com.google.firebase:firebase-iid:17.0.3] C:\Users\Lwalt\.gradle\caches\transforms-1\files-1.1\firebase-iid-17.0.3.aar\37576a435debdc0393958d32be61dfab\AndroidManifest.xml:17:1-59:12
MERGED from [com.google.firebase:firebase-iid-interop:16.0.1] C:\Users\Lwalt\.gradle\caches\transforms-1\files-1.1\firebase-iid-interop-16.0.1.aar\b2e233f9727733f33867e29f53727083\AndroidManifest.xml:2:1-10:12
MERGED from [com.google.android.gms:play-services-base:16.0.1] C:\Users\Lwalt\.gradle\caches\transforms-1\files-1.1\play-services-base-16.0.1.aar\333072febde503084cddfd8d12198ef5\AndroidManifest.xml:17:1-29:12
MERGED from [com.google.firebase:firebase-common:16.0.3] C:\Users\Lwalt\.gradle\caches\transforms-1\files-1.1\firebase-common-16.0.3.aar\989eb7f405670813dc8e815a45987a32\AndroidManifest.xml:2:1-17:12
MERGED from [com.google.android.gms:play-services-tasks:16.0.1] C:\Users\Lwalt\.gradle\caches\transforms-1\files-1.1\play-services-tasks-16.0.1.aar\084684eb990a460e2f1e4bbe940ef314\AndroidManifest.xml:2:1-9:12
MERGED from [com.google.android.gms:play-services-stats:16.0.1] C:\Users\Lwalt\.gradle\caches\transforms-1\files-1.1\play-services-stats-16.0.1.aar\71a611e67912fe31013d5d88b1686426\AndroidManifest.xml:2:1-9:12
MERGED from [com.google.android.gms:play-services-basement:16.1.0] C:\Users\Lwalt\.gradle\caches\transforms-1\files-1.1\play-services-basement-16.1.0.aar\fe8194374b89109341c876de3b8d197f\AndroidManifest.xml:17:1-28:12
MERGED from [com.android.support:support-v4:28.0.0] C:\Users\Lwalt\.gradle\caches\transforms-1\files-1.1\support-v4-28.0.0.aar\8c7d27e157d1343970a8b701445a700c\AndroidManifest.xml:17:1-22:12
MERGED from [com.android.support:exifinterface:28.0.0] C:\Users\Lwalt\.gradle\caches\transforms-1\files-1.1\exifinterface-28.0.0.aar\3b25bfffc4187e8425cd96624bf1b39b\AndroidManifest.xml:17:1-22:12
MERGED from [com.android.support:support-media-compat:28.0.0] C:\Users\Lwalt\.gradle\caches\transforms-1\files-1.1\support-media-compat-28.0.0.aar\60af4b118a282582fd343b041e7f54c7\AndroidManifest.xml:17:1-22:12
MERGED from [com.android.support.constraint:constraint-layout:1.1.3] C:\Users\Lwalt\.gradle\caches\transforms-1\files-1.1\constraint-layout-1.1.3.aar\79ae6b1b4987db6497ffe01ba54732b0\AndroidManifest.xml:2:1-11:12
MERGED from [org.tensorflow:tensorflow-lite:1.12.0] C:\Users\Lwalt\.gradle\caches\transforms-1\files-1.1\tensorflow-lite-1.12.0.aar\9bc63dcf3ccc25000f611109d0f8db30\AndroidManifest.xml:2:1-11:12
MERGED from [com.android.support:support-fragment:28.0.0] C:\Users\Lwalt\.gradle\caches\transforms-1\files-1.1\support-fragment-28.0.0.aar\6f71ef28a2a4f8fc6c05bd1718534749\AndroidManifest.xml:17:1-22:12
MERGED from [com.android.support:animated-vector-drawable:28.0.0] C:\Users\Lwalt\.gradle\caches\transforms-1\files-1.1\animated-vector-drawable-28.0.0.aar\98de199c3d911991a7fd0f9d32bfceeb\AndroidManifest.xml:17:1-22:12
MERGED from [com.android.support:recyclerview-v7:28.0.0] C:\Users\Lwalt\.gradle\caches\transforms-1\files-1.1\recyclerview-v7-28.0.0.aar\64b4370a73374beb2e4d7b95d24d02b1\AndroidManifest.xml:17:1-22:12
MERGED from [com.android.support:support-core-ui:28.0.0] C:\Users\Lwalt\.gradle\caches\transforms-1\files-1.1\support-core-ui-28.0.0.aar\d53e669b9c73e234861bfe0517da6c4f\AndroidManifest.xml:17:1-22:12
MERGED from [com.android.support:support-core-utils:28.0.0] C:\Users\Lwalt\.gradle\caches\transforms-1\files-1.1\support-core-utils-28.0.0.aar\c3ac4dedc4af1beef6a689d489724d5c\AndroidManifest.xml:17:1-22:12
MERGED from [com.android.support:support-vector-drawable:28.0.0] C:\Users\Lwalt\.gradle\caches\transforms-1\files-1.1\support-vector-drawable-28.0.0.aar\8a808e7e1fbba7772b4cb31c5c09c517\AndroidManifest.xml:17:1-22:12
MERGED from [com.android.support:transition:28.0.0] C:\Users\Lwalt\.gradle\caches\transforms-1\files-1.1\transition-28.0.0.aar\4e9a2b53a2d9628d04231fd6892d01b5\AndroidManifest.xml:17:1-22:12
MERGED from [com.android.support:loader:28.0.0] C:\Users\Lwalt\.gradle\caches\transforms-1\files-1.1\loader-28.0.0.aar\e9586c18b638033aefbd57d5db16350a\AndroidManifest.xml:17:1-22:12
MERGED from [com.android.support:viewpager:28.0.0] C:\Users\Lwalt\.gradle\caches\transforms-1\files-1.1\viewpager-28.0.0.aar\f91ab3aaa45e128c0e25cfb5d30d3a4a\AndroidManifest.xml:17:1-22:12
MERGED from [com.android.support:coordinatorlayout:28.0.0] C:\Users\Lwalt\.gradle\caches\transforms-1\files-1.1\coordinatorlayout-28.0.0.aar\c8a812bac8c1bb4ab628c9243c611746\AndroidManifest.xml:17:1-22:12
MERGED from [com.android.support:drawerlayout:28.0.0] C:\Users\Lwalt\.gradle\caches\transforms-1\files-1.1\drawerlayout-28.0.0.aar\c17665a3773fe7ad64f0904a2f716f4d\AndroidManifest.xml:17:1-22:12
MERGED from [com.android.support:slidingpanelayout:28.0.0] C:\Users\Lwalt\.gradle\caches\transforms-1\files-1.1\slidingpanelayout-28.0.0.aar\a36ad6887f61944176fdf14705e9e479\AndroidManifest.xml:17:1-22:12
MERGED from [com.android.support:customview:28.0.0] C:\Users\Lwalt\.gradle\caches\transforms-1\files-1.1\customview-28.0.0.aar\2bae800659970bd1d745dea46f436fe9\AndroidManifest.xml:17:1-22:12
MERGED from [com.android.support:swiperefreshlayout:28.0.0] C:\Users\Lwalt\.gradle\caches\transforms-1\files-1.1\swiperefreshlayout-28.0.0.aar\11f0b831446187e22b643b6e2dd3189b\AndroidManifest.xml:17:1-22:12
MERGED from [com.android.support:asynclayoutinflater:28.0.0] C:\Users\Lwalt\.gradle\caches\transforms-1\files-1.1\asynclayoutinflater-28.0.0.aar\2b1665f0049b3c3c8ff08ec72600cd89\AndroidManifest.xml:17:1-22:12
MERGED from [com.android.support:support-compat:28.0.0] C:\Users\Lwalt\.gradle\caches\transforms-1\files-1.1\support-compat-28.0.0.aar\77e26f0a303f40e4bbabb603e8d334c1\AndroidManifest.xml:17:1-24:12
MERGED from [com.android.support:versionedparcelable:28.0.0] C:\Users\Lwalt\.gradle\caches\transforms-1\files-1.1\versionedparcelable-28.0.0.aar\531cb99adb5eeca8264d3cbfe389cc22\AndroidManifest.xml:17:1-25:12
MERGED from [com.android.support:cursoradapter:28.0.0] C:\Users\Lwalt\.gradle\caches\transforms-1\files-1.1\cursoradapter-28.0.0.aar\c79164752aee64cd922c6bffe0c52a9d\AndroidManifest.xml:17:1-22:12
MERGED from [com.android.support:cardview-v7:28.0.0] C:\Users\Lwalt\.gradle\caches\transforms-1\files-1.1\cardview-v7-28.0.0.aar\4abe44595f4fbcdc27affee0635e00df\AndroidManifest.xml:17:1-22:12
MERGED from [android.arch.lifecycle:runtime:1.1.1] C:\Users\Lwalt\.gradle\caches\transforms-1\files-1.1\runtime-1.1.1.aar\a50dab378a43bf4e9ac79b026ab0faab\AndroidManifest.xml:17:1-22:12
MERGED from [com.android.support:documentfile:28.0.0] C:\Users\Lwalt\.gradle\caches\transforms-1\files-1.1\documentfile-28.0.0.aar\a259e737926bcdda2be9b524cff4e76f\AndroidManifest.xml:17:1-22:12
MERGED from [com.android.support:localbroadcastmanager:28.0.0] C:\Users\Lwalt\.gradle\caches\transforms-1\files-1.1\localbroadcastmanager-28.0.0.aar\c1052ad825cf36c60f9aa71d11d3808e\AndroidManifest.xml:17:1-22:12
MERGED from [com.android.support:print:28.0.0] C:\Users\Lwalt\.gradle\caches\transforms-1\files-1.1\print-28.0.0.aar\31c53d7091cc521590e682335b7a5973\AndroidManifest.xml:17:1-22:12
MERGED from [android.arch.lifecycle:viewmodel:1.1.1] C:\Users\Lwalt\.gradle\caches\transforms-1\files-1.1\viewmodel-1.1.1.aar\92fde8d021379c993258b11c1dc4191a\AndroidManifest.xml:17:1-22:12
MERGED from [com.android.support:interpolator:28.0.0] C:\Users\Lwalt\.gradle\caches\transforms-1\files-1.1\interpolator-28.0.0.aar\267397e3138df19312ec16583ecf09eb\AndroidManifest.xml:17:1-22:12
MERGED from [android.arch.lifecycle:livedata:1.1.1] C:\Users\Lwalt\.gradle\caches\transforms-1\files-1.1\livedata-1.1.1.aar\67e8e8021516e503d7e51bc7079220f4\AndroidManifest.xml:17:1-22:12
MERGED from [android.arch.lifecycle:livedata-core:1.1.1] C:\Users\Lwalt\.gradle\caches\transforms-1\files-1.1\livedata-core-1.1.1.aar\ffa69a51ba5355ccedd57df867291e81\AndroidManifest.xml:17:1-22:12
MERGED from [android.arch.core:runtime:1.1.1] C:\Users\Lwalt\.gradle\caches\transforms-1\files-1.1\runtime-1.1.1.aar\83f42b40f66c44a8493b4d50c9fb64ec\AndroidManifest.xml:17:1-22:12
MERGED from [androidx.exifinterface:exifinterface:1.0.0] C:\Users\Lwalt\.gradle\caches\transforms-1\files-1.1\exifinterface-1.0.0.aar\9707140ed65d01b1d4b8cead1fe0ad28\AndroidManifest.xml:17:1-22:12
INJECTED from C:\Users\Lwalt\workspace\3rd Year Project\Old\1. Decoder test\MLKit\quickstart-android\mlkit\app\src\main\AndroidManifest.xml:2:1-18:12
INJECTED from C:\Users\Lwalt\workspace\3rd Year Project\Old\1. Decoder test\MLKit\quickstart-android\mlkit\app\src\main\AndroidManifest.xml:2:1-18:12
INJECTED from C:\Users\Lwalt\workspace\3rd Year Project\Old\1. Decoder test\MLKit\quickstart-android\mlkit\app\src\main\AndroidManifest.xml:2:1-18:12
	package
		ADDED from C:\Users\Lwalt\workspace\3rd Year Project\Old\1. Decoder test\MLKit\quickstart-android\mlkit\app\src\main\AndroidManifest.xml:3:5-53
		INJECTED from C:\Users\Lwalt\workspace\3rd Year Project\Old\1. Decoder test\MLKit\quickstart-android\mlkit\app\src\main\AndroidManifest.xml
		INJECTED from C:\Users\Lwalt\workspace\3rd Year Project\Old\1. Decoder test\MLKit\quickstart-android\mlkit\app\src\main\AndroidManifest.xml
	android:versionName
		INJECTED from C:\Users\Lwalt\workspace\3rd Year Project\Old\1. Decoder test\MLKit\quickstart-android\mlkit\app\src\main\AndroidManifest.xml
		ADDED from C:\Users\Lwalt\workspace\3rd Year Project\Old\1. Decoder test\MLKit\quickstart-android\mlkit\app\src\main\AndroidManifest.xml:2:1-18:12
		INJECTED from C:\Users\Lwalt\workspace\3rd Year Project\Old\1. Decoder test\MLKit\quickstart-android\mlkit\app\src\main\AndroidManifest.xml
	android:versionCode
		INJECTED from C:\Users\Lwalt\workspace\3rd Year Project\Old\1. Decoder test\MLKit\quickstart-android\mlkit\app\src\main\AndroidManifest.xml
		ADDED from C:\Users\Lwalt\workspace\3rd Year Project\Old\1. Decoder test\MLKit\quickstart-android\mlkit\app\src\main\AndroidManifest.xml:2:1-18:12
		INJECTED from C:\Users\Lwalt\workspace\3rd Year Project\Old\1. Decoder test\MLKit\quickstart-android\mlkit\app\src\main\AndroidManifest.xml
	xmlns:android
		ADDED from C:\Users\Lwalt\workspace\3rd Year Project\Old\1. Decoder test\MLKit\quickstart-android\mlkit\app\src\main\AndroidManifest.xml:2:11-69
application
ADDED from C:\Users\Lwalt\workspace\3rd Year Project\Old\1. Decoder test\MLKit\quickstart-android\mlkit\app\src\main\AndroidManifest.xml:5:5-17:19
MERGED from [com.android.support:design:28.0.0] C:\Users\Lwalt\.gradle\caches\transforms-1\files-1.1\design-28.0.0.aar\c9997e958427f828741236d0198cb896\AndroidManifest.xml:22:5-20
MERGED from [com.android.support:design:28.0.0] C:\Users\Lwalt\.gradle\caches\transforms-1\files-1.1\design-28.0.0.aar\c9997e958427f828741236d0198cb896\AndroidManifest.xml:22:5-20
MERGED from [com.google.firebase:firebase-ml-vision-image-label-model:17.0.2] C:\Users\Lwalt\.gradle\caches\transforms-1\files-1.1\firebase-ml-vision-image-label-model-17.0.2.aar\0389b4491f1ca0bf088a37b254bb774e\AndroidManifest.xml:7:5-20
MERGED from [com.google.firebase:firebase-ml-vision-image-label-model:17.0.2] C:\Users\Lwalt\.gradle\caches\transforms-1\files-1.1\firebase-ml-vision-image-label-model-17.0.2.aar\0389b4491f1ca0bf088a37b254bb774e\AndroidManifest.xml:7:5-20
MERGED from [com.google.firebase:firebase-ml-vision-face-model:17.0.2] C:\Users\Lwalt\.gradle\caches\transforms-1\files-1.1\firebase-ml-vision-face-model-17.0.2.aar\9ff7f2d90632a06fa24f368b0497802b\AndroidManifest.xml:7:5-20
MERGED from [com.google.firebase:firebase-ml-vision-face-model:17.0.2] C:\Users\Lwalt\.gradle\caches\transforms-1\files-1.1\firebase-ml-vision-face-model-17.0.2.aar\9ff7f2d90632a06fa24f368b0497802b\AndroidManifest.xml:7:5-20
MERGED from [com.google.android.gms:play-services-vision:17.0.2] C:\Users\Lwalt\.gradle\caches\transforms-1\files-1.1\play-services-vision-17.0.2.aar\56aedc00508630c655e121a588ed9992\AndroidManifest.xml:7:5-20
MERGED from [com.google.android.gms:play-services-vision:17.0.2] C:\Users\Lwalt\.gradle\caches\transforms-1\files-1.1\play-services-vision-17.0.2.aar\56aedc00508630c655e121a588ed9992\AndroidManifest.xml:7:5-20
MERGED from [com.google.android.gms:play-services-vision-image-label:17.0.2] C:\Users\Lwalt\.gradle\caches\transforms-1\files-1.1\play-services-vision-image-label-17.0.2.aar\a158b9744f9610ac2b783986875eef30\AndroidManifest.xml:7:5-20
MERGED from [com.google.android.gms:play-services-vision-image-label:17.0.2] C:\Users\Lwalt\.gradle\caches\transforms-1\files-1.1\play-services-vision-image-label-17.0.2.aar\a158b9744f9610ac2b783986875eef30\AndroidManifest.xml:7:5-20
MERGED from [com.google.android.gms:play-services-vision-common:17.0.2] C:\Users\Lwalt\.gradle\caches\transforms-1\files-1.1\play-services-vision-common-17.0.2.aar\21c86c619c7e211b3c4ab73528dae77f\AndroidManifest.xml:7:5-20
MERGED from [com.google.android.gms:play-services-vision-common:17.0.2] C:\Users\Lwalt\.gradle\caches\transforms-1\files-1.1\play-services-vision-common-17.0.2.aar\21c86c619c7e211b3c4ab73528dae77f\AndroidManifest.xml:7:5-20
MERGED from [com.google.android.gms:play-services-clearcut:16.0.0] C:\Users\Lwalt\.gradle\caches\transforms-1\files-1.1\play-services-clearcut-16.0.0.aar\71a921c4839edecbfc52d7df84d20d7a\AndroidManifest.xml:22:5-20
MERGED from [com.google.android.gms:play-services-clearcut:16.0.0] C:\Users\Lwalt\.gradle\caches\transforms-1\files-1.1\play-services-clearcut-16.0.0.aar\71a921c4839edecbfc52d7df84d20d7a\AndroidManifest.xml:22:5-20
MERGED from [com.google.android.gms:play-services-phenotype:16.0.0] C:\Users\Lwalt\.gradle\caches\transforms-1\files-1.1\play-services-phenotype-16.0.0.aar\8c533ab30fc3ce837230e7c0b3bf29d7\AndroidManifest.xml:22:5-20
MERGED from [com.google.android.gms:play-services-phenotype:16.0.0] C:\Users\Lwalt\.gradle\caches\transforms-1\files-1.1\play-services-phenotype-16.0.0.aar\8c533ab30fc3ce837230e7c0b3bf29d7\AndroidManifest.xml:22:5-20
MERGED from [com.google.firebase:firebase-iid:17.0.3] C:\Users\Lwalt\.gradle\caches\transforms-1\files-1.1\firebase-iid-17.0.3.aar\37576a435debdc0393958d32be61dfab\AndroidManifest.xml:28:5-57:19
MERGED from [com.google.firebase:firebase-iid:17.0.3] C:\Users\Lwalt\.gradle\caches\transforms-1\files-1.1\firebase-iid-17.0.3.aar\37576a435debdc0393958d32be61dfab\AndroidManifest.xml:28:5-57:19
MERGED from [com.google.firebase:firebase-iid-interop:16.0.1] C:\Users\Lwalt\.gradle\caches\transforms-1\files-1.1\firebase-iid-interop-16.0.1.aar\b2e233f9727733f33867e29f53727083\AndroidManifest.xml:7:5-8:19
MERGED from [com.google.firebase:firebase-iid-interop:16.0.1] C:\Users\Lwalt\.gradle\caches\transforms-1\files-1.1\firebase-iid-interop-16.0.1.aar\b2e233f9727733f33867e29f53727083\AndroidManifest.xml:7:5-8:19
MERGED from [com.google.android.gms:play-services-base:16.0.1] C:\Users\Lwalt\.gradle\caches\transforms-1\files-1.1\play-services-base-16.0.1.aar\333072febde503084cddfd8d12198ef5\AndroidManifest.xml:22:5-27:19
MERGED from [com.google.android.gms:play-services-base:16.0.1] C:\Users\Lwalt\.gradle\caches\transforms-1\files-1.1\play-services-base-16.0.1.aar\333072febde503084cddfd8d12198ef5\AndroidManifest.xml:22:5-27:19
MERGED from [com.google.firebase:firebase-common:16.0.3] C:\Users\Lwalt\.gradle\caches\transforms-1\files-1.1\firebase-common-16.0.3.aar\989eb7f405670813dc8e815a45987a32\AndroidManifest.xml:9:5-15:19
MERGED from [com.google.firebase:firebase-common:16.0.3] C:\Users\Lwalt\.gradle\caches\transforms-1\files-1.1\firebase-common-16.0.3.aar\989eb7f405670813dc8e815a45987a32\AndroidManifest.xml:9:5-15:19
MERGED from [com.google.android.gms:play-services-tasks:16.0.1] C:\Users\Lwalt\.gradle\caches\transforms-1\files-1.1\play-services-tasks-16.0.1.aar\084684eb990a460e2f1e4bbe940ef314\AndroidManifest.xml:7:5-20
MERGED from [com.google.android.gms:play-services-tasks:16.0.1] C:\Users\Lwalt\.gradle\caches\transforms-1\files-1.1\play-services-tasks-16.0.1.aar\084684eb990a460e2f1e4bbe940ef314\AndroidManifest.xml:7:5-20
MERGED from [com.google.android.gms:play-services-stats:16.0.1] C:\Users\Lwalt\.gradle\caches\transforms-1\files-1.1\play-services-stats-16.0.1.aar\71a611e67912fe31013d5d88b1686426\AndroidManifest.xml:7:5-20
MERGED from [com.google.android.gms:play-services-stats:16.0.1] C:\Users\Lwalt\.gradle\caches\transforms-1\files-1.1\play-services-stats-16.0.1.aar\71a611e67912fe31013d5d88b1686426\AndroidManifest.xml:7:5-20
MERGED from [com.google.android.gms:play-services-basement:16.1.0] C:\Users\Lwalt\.gradle\caches\transforms-1\files-1.1\play-services-basement-16.1.0.aar\fe8194374b89109341c876de3b8d197f\AndroidManifest.xml:22:5-26:19
MERGED from [com.google.android.gms:play-services-basement:16.1.0] C:\Users\Lwalt\.gradle\caches\transforms-1\files-1.1\play-services-basement-16.1.0.aar\fe8194374b89109341c876de3b8d197f\AndroidManifest.xml:22:5-26:19
MERGED from [com.android.support.constraint:constraint-layout:1.1.3] C:\Users\Lwalt\.gradle\caches\transforms-1\files-1.1\constraint-layout-1.1.3.aar\79ae6b1b4987db6497ffe01ba54732b0\AndroidManifest.xml:9:5-20
MERGED from [com.android.support.constraint:constraint-layout:1.1.3] C:\Users\Lwalt\.gradle\caches\transforms-1\files-1.1\constraint-layout-1.1.3.aar\79ae6b1b4987db6497ffe01ba54732b0\AndroidManifest.xml:9:5-20
MERGED from [org.tensorflow:tensorflow-lite:1.12.0] C:\Users\Lwalt\.gradle\caches\transforms-1\files-1.1\tensorflow-lite-1.12.0.aar\9bc63dcf3ccc25000f611109d0f8db30\AndroidManifest.xml:9:5-20
MERGED from [org.tensorflow:tensorflow-lite:1.12.0] C:\Users\Lwalt\.gradle\caches\transforms-1\files-1.1\tensorflow-lite-1.12.0.aar\9bc63dcf3ccc25000f611109d0f8db30\AndroidManifest.xml:9:5-20
MERGED from [com.android.support:support-compat:28.0.0] C:\Users\Lwalt\.gradle\caches\transforms-1\files-1.1\support-compat-28.0.0.aar\77e26f0a303f40e4bbabb603e8d334c1\AndroidManifest.xml:22:5-94
MERGED from [com.android.support:support-compat:28.0.0] C:\Users\Lwalt\.gradle\caches\transforms-1\files-1.1\support-compat-28.0.0.aar\77e26f0a303f40e4bbabb603e8d334c1\AndroidManifest.xml:22:5-94
MERGED from [com.android.support:versionedparcelable:28.0.0] C:\Users\Lwalt\.gradle\caches\transforms-1\files-1.1\versionedparcelable-28.0.0.aar\531cb99adb5eeca8264d3cbfe389cc22\AndroidManifest.xml:22:5-23:19
MERGED from [com.android.support:versionedparcelable:28.0.0] C:\Users\Lwalt\.gradle\caches\transforms-1\files-1.1\versionedparcelable-28.0.0.aar\531cb99adb5eeca8264d3cbfe389cc22\AndroidManifest.xml:22:5-23:19
	android:appComponentFactory
		ADDED from [com.android.support:support-compat:28.0.0] C:\Users\Lwalt\.gradle\caches\transforms-1\files-1.1\support-compat-28.0.0.aar\77e26f0a303f40e4bbabb603e8d334c1\AndroidManifest.xml:22:18-91
	android:label
		ADDED from C:\Users\Lwalt\workspace\3rd Year Project\Old\1. Decoder test\MLKit\quickstart-android\mlkit\app\src\main\AndroidManifest.xml:7:9-43
	android:allowBackup
		ADDED from C:\Users\Lwalt\workspace\3rd Year Project\Old\1. Decoder test\MLKit\quickstart-android\mlkit\app\src\main\AndroidManifest.xml:6:9-35
	android:theme
		ADDED from C:\Users\Lwalt\workspace\3rd Year Project\Old\1. Decoder test\MLKit\quickstart-android\mlkit\app\src\main\AndroidManifest.xml:8:9-53
activity#com.google.firebase.samples.apps.mlkit.java.MainActivity
ADDED from C:\Users\Lwalt\workspace\3rd Year Project\Old\1. Decoder test\MLKit\quickstart-android\mlkit\app\src\main\AndroidManifest.xml:9:9-16:20
	android:exported
		ADDED from C:\Users\Lwalt\workspace\3rd Year Project\Old\1. Decoder test\MLKit\quickstart-android\mlkit\app\src\main\AndroidManifest.xml:11:13-36
	android:name
		ADDED from C:\Users\Lwalt\workspace\3rd Year Project\Old\1. Decoder test\MLKit\quickstart-android\mlkit\app\src\main\AndroidManifest.xml:10:13-46
intent-filter#action:name:android.intent.action.MAIN+category:name:android.intent.category.LAUNCHER
ADDED from C:\Users\Lwalt\workspace\3rd Year Project\Old\1. Decoder test\MLKit\quickstart-android\mlkit\app\src\main\AndroidManifest.xml:12:13-15:29
action#android.intent.action.MAIN
ADDED from C:\Users\Lwalt\workspace\3rd Year Project\Old\1. Decoder test\MLKit\quickstart-android\mlkit\app\src\main\AndroidManifest.xml:13:17-69
	android:name
		ADDED from C:\Users\Lwalt\workspace\3rd Year Project\Old\1. Decoder test\MLKit\quickstart-android\mlkit\app\src\main\AndroidManifest.xml:13:25-66
category#android.intent.category.LAUNCHER
ADDED from C:\Users\Lwalt\workspace\3rd Year Project\Old\1. Decoder test\MLKit\quickstart-android\mlkit\app\src\main\AndroidManifest.xml:14:17-77
	android:name
		ADDED from C:\Users\Lwalt\workspace\3rd Year Project\Old\1. Decoder test\MLKit\quickstart-android\mlkit\app\src\main\AndroidManifest.xml:14:27-74
uses-sdk
INJECTED from C:\Users\Lwalt\workspace\3rd Year Project\Old\1. Decoder test\MLKit\quickstart-android\mlkit\app\src\main\AndroidManifest.xml reason: use-sdk injection requested
INJECTED from C:\Users\Lwalt\workspace\3rd Year Project\Old\1. Decoder test\MLKit\quickstart-android\mlkit\app\src\main\AndroidManifest.xml
INJECTED from C:\Users\Lwalt\workspace\3rd Year Project\Old\1. Decoder test\MLKit\quickstart-android\mlkit\app\src\main\AndroidManifest.xml
MERGED from [com.android.support:design:28.0.0] C:\Users\Lwalt\.gradle\caches\transforms-1\files-1.1\design-28.0.0.aar\c9997e958427f828741236d0198cb896\AndroidManifest.xml:20:5-44
MERGED from [com.android.support:design:28.0.0] C:\Users\Lwalt\.gradle\caches\transforms-1\files-1.1\design-28.0.0.aar\c9997e958427f828741236d0198cb896\AndroidManifest.xml:20:5-44
MERGED from [com.android.support:appcompat-v7:28.0.0] C:\Users\Lwalt\.gradle\caches\transforms-1\files-1.1\appcompat-v7-28.0.0.aar\539733e2c539647bd587533f4cb0523f\AndroidManifest.xml:20:5-44
MERGED from [com.android.support:appcompat-v7:28.0.0] C:\Users\Lwalt\.gradle\caches\transforms-1\files-1.1\appcompat-v7-28.0.0.aar\539733e2c539647bd587533f4cb0523f\AndroidManifest.xml:20:5-44
MERGED from [com.google.firebase:firebase-ml-vision:18.0.2] C:\Users\Lwalt\.gradle\caches\transforms-1\files-1.1\firebase-ml-vision-18.0.2.aar\da36d813801bb2b62bdeda0250411041\AndroidManifest.xml:6:5-44
MERGED from [com.google.firebase:firebase-ml-vision:18.0.2] C:\Users\Lwalt\.gradle\caches\transforms-1\files-1.1\firebase-ml-vision-18.0.2.aar\da36d813801bb2b62bdeda0250411041\AndroidManifest.xml:6:5-44
MERGED from [com.google.firebase:firebase-ml-vision-image-label-model:17.0.2] C:\Users\Lwalt\.gradle\caches\transforms-1\files-1.1\firebase-ml-vision-image-label-model-17.0.2.aar\0389b4491f1ca0bf088a37b254bb774e\AndroidManifest.xml:5:5-44
MERGED from [com.google.firebase:firebase-ml-vision-image-label-model:17.0.2] C:\Users\Lwalt\.gradle\caches\transforms-1\files-1.1\firebase-ml-vision-image-label-model-17.0.2.aar\0389b4491f1ca0bf088a37b254bb774e\AndroidManifest.xml:5:5-44
MERGED from [com.google.firebase:firebase-ml-vision-face-model:17.0.2] C:\Users\Lwalt\.gradle\caches\transforms-1\files-1.1\firebase-ml-vision-face-model-17.0.2.aar\9ff7f2d90632a06fa24f368b0497802b\AndroidManifest.xml:5:5-44
MERGED from [com.google.firebase:firebase-ml-vision-face-model:17.0.2] C:\Users\Lwalt\.gradle\caches\transforms-1\files-1.1\firebase-ml-vision-face-model-17.0.2.aar\9ff7f2d90632a06fa24f368b0497802b\AndroidManifest.xml:5:5-44
MERGED from [com.google.firebase:firebase-ml-model-interpreter:16.2.4] C:\Users\Lwalt\.gradle\caches\transforms-1\files-1.1\firebase-ml-model-interpreter-16.2.4.aar\dd843d99408367fbf6d4a0a16488afd6\AndroidManifest.xml:6:5-44
MERGED from [com.google.firebase:firebase-ml-model-interpreter:16.2.4] C:\Users\Lwalt\.gradle\caches\transforms-1\files-1.1\firebase-ml-model-interpreter-16.2.4.aar\dd843d99408367fbf6d4a0a16488afd6\AndroidManifest.xml:6:5-44
MERGED from [com.google.android.gms:play-services-auth-base:16.0.0] C:\Users\Lwalt\.gradle\caches\transforms-1\files-1.1\play-services-auth-base-16.0.0.aar\e966741612a1e9edb4934084a548fdbf\AndroidManifest.xml:5:5-44
MERGED from [com.google.android.gms:play-services-auth-base:16.0.0] C:\Users\Lwalt\.gradle\caches\transforms-1\files-1.1\play-services-auth-base-16.0.0.aar\e966741612a1e9edb4934084a548fdbf\AndroidManifest.xml:5:5-44
MERGED from [com.google.android.gms:play-services-vision:17.0.2] C:\Users\Lwalt\.gradle\caches\transforms-1\files-1.1\play-services-vision-17.0.2.aar\56aedc00508630c655e121a588ed9992\AndroidManifest.xml:5:5-44
MERGED from [com.google.android.gms:play-services-vision:17.0.2] C:\Users\Lwalt\.gradle\caches\transforms-1\files-1.1\play-services-vision-17.0.2.aar\56aedc00508630c655e121a588ed9992\AndroidManifest.xml:5:5-44
MERGED from [com.google.android.gms:play-services-vision-image-label:17.0.2] C:\Users\Lwalt\.gradle\caches\transforms-1\files-1.1\play-services-vision-image-label-17.0.2.aar\a158b9744f9610ac2b783986875eef30\AndroidManifest.xml:5:5-44
MERGED from [com.google.android.gms:play-services-vision-image-label:17.0.2] C:\Users\Lwalt\.gradle\caches\transforms-1\files-1.1\play-services-vision-image-label-17.0.2.aar\a158b9744f9610ac2b783986875eef30\AndroidManifest.xml:5:5-44
MERGED from [com.google.android.gms:play-services-vision-common:17.0.2] C:\Users\Lwalt\.gradle\caches\transforms-1\files-1.1\play-services-vision-common-17.0.2.aar\21c86c619c7e211b3c4ab73528dae77f\AndroidManifest.xml:5:5-44
MERGED from [com.google.android.gms:play-services-vision-common:17.0.2] C:\Users\Lwalt\.gradle\caches\transforms-1\files-1.1\play-services-vision-common-17.0.2.aar\21c86c619c7e211b3c4ab73528dae77f\AndroidManifest.xml:5:5-44
MERGED from [com.google.firebase:firebase-ml-common:16.1.6] C:\Users\Lwalt\.gradle\caches\transforms-1\files-1.1\firebase-ml-common-16.1.6.aar\627d989d4ac873ea14033d44df68ff93\AndroidManifest.xml:6:5-44
MERGED from [com.google.firebase:firebase-ml-common:16.1.6] C:\Users\Lwalt\.gradle\caches\transforms-1\files-1.1\firebase-ml-common-16.1.6.aar\627d989d4ac873ea14033d44df68ff93\AndroidManifest.xml:6:5-44
MERGED from [com.google.android.gms:play-services-clearcut:16.0.0] C:\Users\Lwalt\.gradle\caches\transforms-1\files-1.1\play-services-clearcut-16.0.0.aar\71a921c4839edecbfc52d7df84d20d7a\AndroidManifest.xml:20:5-44
MERGED from [com.google.android.gms:play-services-clearcut:16.0.0] C:\Users\Lwalt\.gradle\caches\transforms-1\files-1.1\play-services-clearcut-16.0.0.aar\71a921c4839edecbfc52d7df84d20d7a\AndroidManifest.xml:20:5-44
MERGED from [com.google.android.gms:play-services-flags:16.0.1] C:\Users\Lwalt\.gradle\caches\transforms-1\files-1.1\play-services-flags-16.0.1.aar\d7117b29bf49a08f77c26937f0b43a28\AndroidManifest.xml:20:5-44
MERGED from [com.google.android.gms:play-services-flags:16.0.1] C:\Users\Lwalt\.gradle\caches\transforms-1\files-1.1\play-services-flags-16.0.1.aar\d7117b29bf49a08f77c26937f0b43a28\AndroidManifest.xml:20:5-44
MERGED from [com.google.android.gms:play-services-phenotype:16.0.0] C:\Users\Lwalt\.gradle\caches\transforms-1\files-1.1\play-services-phenotype-16.0.0.aar\8c533ab30fc3ce837230e7c0b3bf29d7\AndroidManifest.xml:20:5-44
MERGED from [com.google.android.gms:play-services-phenotype:16.0.0] C:\Users\Lwalt\.gradle\caches\transforms-1\files-1.1\play-services-phenotype-16.0.0.aar\8c533ab30fc3ce837230e7c0b3bf29d7\AndroidManifest.xml:20:5-44
MERGED from [com.google.firebase:firebase-iid:17.0.3] C:\Users\Lwalt\.gradle\caches\transforms-1\files-1.1\firebase-iid-17.0.3.aar\37576a435debdc0393958d32be61dfab\AndroidManifest.xml:20:5-44
MERGED from [com.google.firebase:firebase-iid:17.0.3] C:\Users\Lwalt\.gradle\caches\transforms-1\files-1.1\firebase-iid-17.0.3.aar\37576a435debdc0393958d32be61dfab\AndroidManifest.xml:20:5-44
MERGED from [com.google.firebase:firebase-iid-interop:16.0.1] C:\Users\Lwalt\.gradle\caches\transforms-1\files-1.1\firebase-iid-interop-16.0.1.aar\b2e233f9727733f33867e29f53727083\AndroidManifest.xml:5:5-44
MERGED from [com.google.firebase:firebase-iid-interop:16.0.1] C:\Users\Lwalt\.gradle\caches\transforms-1\files-1.1\firebase-iid-interop-16.0.1.aar\b2e233f9727733f33867e29f53727083\AndroidManifest.xml:5:5-44
MERGED from [com.google.android.gms:play-services-base:16.0.1] C:\Users\Lwalt\.gradle\caches\transforms-1\files-1.1\play-services-base-16.0.1.aar\333072febde503084cddfd8d12198ef5\AndroidManifest.xml:20:5-44
MERGED from [com.google.android.gms:play-services-base:16.0.1] C:\Users\Lwalt\.gradle\caches\transforms-1\files-1.1\play-services-base-16.0.1.aar\333072febde503084cddfd8d12198ef5\AndroidManifest.xml:20:5-44
MERGED from [com.google.firebase:firebase-common:16.0.3] C:\Users\Lwalt\.gradle\caches\transforms-1\files-1.1\firebase-common-16.0.3.aar\989eb7f405670813dc8e815a45987a32\AndroidManifest.xml:5:5-7:41
MERGED from [com.google.firebase:firebase-common:16.0.3] C:\Users\Lwalt\.gradle\caches\transforms-1\files-1.1\firebase-common-16.0.3.aar\989eb7f405670813dc8e815a45987a32\AndroidManifest.xml:5:5-7:41
MERGED from [com.google.android.gms:play-services-tasks:16.0.1] C:\Users\Lwalt\.gradle\caches\transforms-1\files-1.1\play-services-tasks-16.0.1.aar\084684eb990a460e2f1e4bbe940ef314\AndroidManifest.xml:5:5-44
MERGED from [com.google.android.gms:play-services-tasks:16.0.1] C:\Users\Lwalt\.gradle\caches\transforms-1\files-1.1\play-services-tasks-16.0.1.aar\084684eb990a460e2f1e4bbe940ef314\AndroidManifest.xml:5:5-44
MERGED from [com.google.android.gms:play-services-stats:16.0.1] C:\Users\Lwalt\.gradle\caches\transforms-1\files-1.1\play-services-stats-16.0.1.aar\71a611e67912fe31013d5d88b1686426\AndroidManifest.xml:5:5-44
MERGED from [com.google.android.gms:play-services-stats:16.0.1] C:\Users\Lwalt\.gradle\caches\transforms-1\files-1.1\play-services-stats-16.0.1.aar\71a611e67912fe31013d5d88b1686426\AndroidManifest.xml:5:5-44
MERGED from [com.google.android.gms:play-services-basement:16.1.0] C:\Users\Lwalt\.gradle\caches\transforms-1\files-1.1\play-services-basement-16.1.0.aar\fe8194374b89109341c876de3b8d197f\AndroidManifest.xml:20:5-44
MERGED from [com.google.android.gms:play-services-basement:16.1.0] C:\Users\Lwalt\.gradle\caches\transforms-1\files-1.1\play-services-basement-16.1.0.aar\fe8194374b89109341c876de3b8d197f\AndroidManifest.xml:20:5-44
MERGED from [com.android.support:support-v4:28.0.0] C:\Users\Lwalt\.gradle\caches\transforms-1\files-1.1\support-v4-28.0.0.aar\8c7d27e157d1343970a8b701445a700c\AndroidManifest.xml:20:5-44
MERGED from [com.android.support:support-v4:28.0.0] C:\Users\Lwalt\.gradle\caches\transforms-1\files-1.1\support-v4-28.0.0.aar\8c7d27e157d1343970a8b701445a700c\AndroidManifest.xml:20:5-44
MERGED from [com.android.support:exifinterface:28.0.0] C:\Users\Lwalt\.gradle\caches\transforms-1\files-1.1\exifinterface-28.0.0.aar\3b25bfffc4187e8425cd96624bf1b39b\AndroidManifest.xml:20:5-44
MERGED from [com.android.support:exifinterface:28.0.0] C:\Users\Lwalt\.gradle\caches\transforms-1\files-1.1\exifinterface-28.0.0.aar\3b25bfffc4187e8425cd96624bf1b39b\AndroidManifest.xml:20:5-44
MERGED from [com.android.support:support-media-compat:28.0.0] C:\Users\Lwalt\.gradle\caches\transforms-1\files-1.1\support-media-compat-28.0.0.aar\60af4b118a282582fd343b041e7f54c7\AndroidManifest.xml:20:5-44
MERGED from [com.android.support:support-media-compat:28.0.0] C:\Users\Lwalt\.gradle\caches\transforms-1\files-1.1\support-media-compat-28.0.0.aar\60af4b118a282582fd343b041e7f54c7\AndroidManifest.xml:20:5-44
MERGED from [com.android.support.constraint:constraint-layout:1.1.3] C:\Users\Lwalt\.gradle\caches\transforms-1\files-1.1\constraint-layout-1.1.3.aar\79ae6b1b4987db6497ffe01ba54732b0\AndroidManifest.xml:5:5-7:41
MERGED from [com.android.support.constraint:constraint-layout:1.1.3] C:\Users\Lwalt\.gradle\caches\transforms-1\files-1.1\constraint-layout-1.1.3.aar\79ae6b1b4987db6497ffe01ba54732b0\AndroidManifest.xml:5:5-7:41
MERGED from [org.tensorflow:tensorflow-lite:1.12.0] C:\Users\Lwalt\.gradle\caches\transforms-1\files-1.1\tensorflow-lite-1.12.0.aar\9bc63dcf3ccc25000f611109d0f8db30\AndroidManifest.xml:5:5-7:41
MERGED from [org.tensorflow:tensorflow-lite:1.12.0] C:\Users\Lwalt\.gradle\caches\transforms-1\files-1.1\tensorflow-lite-1.12.0.aar\9bc63dcf3ccc25000f611109d0f8db30\AndroidManifest.xml:5:5-7:41
MERGED from [com.android.support:support-fragment:28.0.0] C:\Users\Lwalt\.gradle\caches\transforms-1\files-1.1\support-fragment-28.0.0.aar\6f71ef28a2a4f8fc6c05bd1718534749\AndroidManifest.xml:20:5-44
MERGED from [com.android.support:support-fragment:28.0.0] C:\Users\Lwalt\.gradle\caches\transforms-1\files-1.1\support-fragment-28.0.0.aar\6f71ef28a2a4f8fc6c05bd1718534749\AndroidManifest.xml:20:5-44
MERGED from [com.android.support:animated-vector-drawable:28.0.0] C:\Users\Lwalt\.gradle\caches\transforms-1\files-1.1\animated-vector-drawable-28.0.0.aar\98de199c3d911991a7fd0f9d32bfceeb\AndroidManifest.xml:20:5-44
MERGED from [com.android.support:animated-vector-drawable:28.0.0] C:\Users\Lwalt\.gradle\caches\transforms-1\files-1.1\animated-vector-drawable-28.0.0.aar\98de199c3d911991a7fd0f9d32bfceeb\AndroidManifest.xml:20:5-44
MERGED from [com.android.support:recyclerview-v7:28.0.0] C:\Users\Lwalt\.gradle\caches\transforms-1\files-1.1\recyclerview-v7-28.0.0.aar\64b4370a73374beb2e4d7b95d24d02b1\AndroidManifest.xml:20:5-44
MERGED from [com.android.support:recyclerview-v7:28.0.0] C:\Users\Lwalt\.gradle\caches\transforms-1\files-1.1\recyclerview-v7-28.0.0.aar\64b4370a73374beb2e4d7b95d24d02b1\AndroidManifest.xml:20:5-44
MERGED from [com.android.support:support-core-ui:28.0.0] C:\Users\Lwalt\.gradle\caches\transforms-1\files-1.1\support-core-ui-28.0.0.aar\d53e669b9c73e234861bfe0517da6c4f\AndroidManifest.xml:20:5-44
MERGED from [com.android.support:support-core-ui:28.0.0] C:\Users\Lwalt\.gradle\caches\transforms-1\files-1.1\support-core-ui-28.0.0.aar\d53e669b9c73e234861bfe0517da6c4f\AndroidManifest.xml:20:5-44
MERGED from [com.android.support:support-core-utils:28.0.0] C:\Users\Lwalt\.gradle\caches\transforms-1\files-1.1\support-core-utils-28.0.0.aar\c3ac4dedc4af1beef6a689d489724d5c\AndroidManifest.xml:20:5-44
MERGED from [com.android.support:support-core-utils:28.0.0] C:\Users\Lwalt\.gradle\caches\transforms-1\files-1.1\support-core-utils-28.0.0.aar\c3ac4dedc4af1beef6a689d489724d5c\AndroidManifest.xml:20:5-44
MERGED from [com.android.support:support-vector-drawable:28.0.0] C:\Users\Lwalt\.gradle\caches\transforms-1\files-1.1\support-vector-drawable-28.0.0.aar\8a808e7e1fbba7772b4cb31c5c09c517\AndroidManifest.xml:20:5-44
MERGED from [com.android.support:support-vector-drawable:28.0.0] C:\Users\Lwalt\.gradle\caches\transforms-1\files-1.1\support-vector-drawable-28.0.0.aar\8a808e7e1fbba7772b4cb31c5c09c517\AndroidManifest.xml:20:5-44
MERGED from [com.android.support:transition:28.0.0] C:\Users\Lwalt\.gradle\caches\transforms-1\files-1.1\transition-28.0.0.aar\4e9a2b53a2d9628d04231fd6892d01b5\AndroidManifest.xml:20:5-44
MERGED from [com.android.support:transition:28.0.0] C:\Users\Lwalt\.gradle\caches\transforms-1\files-1.1\transition-28.0.0.aar\4e9a2b53a2d9628d04231fd6892d01b5\AndroidManifest.xml:20:5-44
MERGED from [com.android.support:loader:28.0.0] C:\Users\Lwalt\.gradle\caches\transforms-1\files-1.1\loader-28.0.0.aar\e9586c18b638033aefbd57d5db16350a\AndroidManifest.xml:20:5-44
MERGED from [com.android.support:loader:28.0.0] C:\Users\Lwalt\.gradle\caches\transforms-1\files-1.1\loader-28.0.0.aar\e9586c18b638033aefbd57d5db16350a\AndroidManifest.xml:20:5-44
MERGED from [com.android.support:viewpager:28.0.0] C:\Users\Lwalt\.gradle\caches\transforms-1\files-1.1\viewpager-28.0.0.aar\f91ab3aaa45e128c0e25cfb5d30d3a4a\AndroidManifest.xml:20:5-44
MERGED from [com.android.support:viewpager:28.0.0] C:\Users\Lwalt\.gradle\caches\transforms-1\files-1.1\viewpager-28.0.0.aar\f91ab3aaa45e128c0e25cfb5d30d3a4a\AndroidManifest.xml:20:5-44
MERGED from [com.android.support:coordinatorlayout:28.0.0] C:\Users\Lwalt\.gradle\caches\transforms-1\files-1.1\coordinatorlayout-28.0.0.aar\c8a812bac8c1bb4ab628c9243c611746\AndroidManifest.xml:20:5-44
MERGED from [com.android.support:coordinatorlayout:28.0.0] C:\Users\Lwalt\.gradle\caches\transforms-1\files-1.1\coordinatorlayout-28.0.0.aar\c8a812bac8c1bb4ab628c9243c611746\AndroidManifest.xml:20:5-44
MERGED from [com.android.support:drawerlayout:28.0.0] C:\Users\Lwalt\.gradle\caches\transforms-1\files-1.1\drawerlayout-28.0.0.aar\c17665a3773fe7ad64f0904a2f716f4d\AndroidManifest.xml:20:5-44
MERGED from [com.android.support:drawerlayout:28.0.0] C:\Users\Lwalt\.gradle\caches\transforms-1\files-1.1\drawerlayout-28.0.0.aar\c17665a3773fe7ad64f0904a2f716f4d\AndroidManifest.xml:20:5-44
MERGED from [com.android.support:slidingpanelayout:28.0.0] C:\Users\Lwalt\.gradle\caches\transforms-1\files-1.1\slidingpanelayout-28.0.0.aar\a36ad6887f61944176fdf14705e9e479\AndroidManifest.xml:20:5-44
MERGED from [com.android.support:slidingpanelayout:28.0.0] C:\Users\Lwalt\.gradle\caches\transforms-1\files-1.1\slidingpanelayout-28.0.0.aar\a36ad6887f61944176fdf14705e9e479\AndroidManifest.xml:20:5-44
MERGED from [com.android.support:customview:28.0.0] C:\Users\Lwalt\.gradle\caches\transforms-1\files-1.1\customview-28.0.0.aar\2bae800659970bd1d745dea46f436fe9\AndroidManifest.xml:20:5-44
MERGED from [com.android.support:customview:28.0.0] C:\Users\Lwalt\.gradle\caches\transforms-1\files-1.1\customview-28.0.0.aar\2bae800659970bd1d745dea46f436fe9\AndroidManifest.xml:20:5-44
MERGED from [com.android.support:swiperefreshlayout:28.0.0] C:\Users\Lwalt\.gradle\caches\transforms-1\files-1.1\swiperefreshlayout-28.0.0.aar\11f0b831446187e22b643b6e2dd3189b\AndroidManifest.xml:20:5-44
MERGED from [com.android.support:swiperefreshlayout:28.0.0] C:\Users\Lwalt\.gradle\caches\transforms-1\files-1.1\swiperefreshlayout-28.0.0.aar\11f0b831446187e22b643b6e2dd3189b\AndroidManifest.xml:20:5-44
MERGED from [com.android.support:asynclayoutinflater:28.0.0] C:\Users\Lwalt\.gradle\caches\transforms-1\files-1.1\asynclayoutinflater-28.0.0.aar\2b1665f0049b3c3c8ff08ec72600cd89\AndroidManifest.xml:20:5-44
MERGED from [com.android.support:asynclayoutinflater:28.0.0] C:\Users\Lwalt\.gradle\caches\transforms-1\files-1.1\asynclayoutinflater-28.0.0.aar\2b1665f0049b3c3c8ff08ec72600cd89\AndroidManifest.xml:20:5-44
MERGED from [com.android.support:support-compat:28.0.0] C:\Users\Lwalt\.gradle\caches\transforms-1\files-1.1\support-compat-28.0.0.aar\77e26f0a303f40e4bbabb603e8d334c1\AndroidManifest.xml:20:5-44
MERGED from [com.android.support:support-compat:28.0.0] C:\Users\Lwalt\.gradle\caches\transforms-1\files-1.1\support-compat-28.0.0.aar\77e26f0a303f40e4bbabb603e8d334c1\AndroidManifest.xml:20:5-44
MERGED from [com.android.support:versionedparcelable:28.0.0] C:\Users\Lwalt\.gradle\caches\transforms-1\files-1.1\versionedparcelable-28.0.0.aar\531cb99adb5eeca8264d3cbfe389cc22\AndroidManifest.xml:20:5-44
MERGED from [com.android.support:versionedparcelable:28.0.0] C:\Users\Lwalt\.gradle\caches\transforms-1\files-1.1\versionedparcelable-28.0.0.aar\531cb99adb5eeca8264d3cbfe389cc22\AndroidManifest.xml:20:5-44
MERGED from [com.android.support:cursoradapter:28.0.0] C:\Users\Lwalt\.gradle\caches\transforms-1\files-1.1\cursoradapter-28.0.0.aar\c79164752aee64cd922c6bffe0c52a9d\AndroidManifest.xml:20:5-44
MERGED from [com.android.support:cursoradapter:28.0.0] C:\Users\Lwalt\.gradle\caches\transforms-1\files-1.1\cursoradapter-28.0.0.aar\c79164752aee64cd922c6bffe0c52a9d\AndroidManifest.xml:20:5-44
MERGED from [com.android.support:cardview-v7:28.0.0] C:\Users\Lwalt\.gradle\caches\transforms-1\files-1.1\cardview-v7-28.0.0.aar\4abe44595f4fbcdc27affee0635e00df\AndroidManifest.xml:20:5-44
MERGED from [com.android.support:cardview-v7:28.0.0] C:\Users\Lwalt\.gradle\caches\transforms-1\files-1.1\cardview-v7-28.0.0.aar\4abe44595f4fbcdc27affee0635e00df\AndroidManifest.xml:20:5-44
MERGED from [android.arch.lifecycle:runtime:1.1.1] C:\Users\Lwalt\.gradle\caches\transforms-1\files-1.1\runtime-1.1.1.aar\a50dab378a43bf4e9ac79b026ab0faab\AndroidManifest.xml:20:5-44
MERGED from [android.arch.lifecycle:runtime:1.1.1] C:\Users\Lwalt\.gradle\caches\transforms-1\files-1.1\runtime-1.1.1.aar\a50dab378a43bf4e9ac79b026ab0faab\AndroidManifest.xml:20:5-44
MERGED from [com.android.support:documentfile:28.0.0] C:\Users\Lwalt\.gradle\caches\transforms-1\files-1.1\documentfile-28.0.0.aar\a259e737926bcdda2be9b524cff4e76f\AndroidManifest.xml:20:5-44
MERGED from [com.android.support:documentfile:28.0.0] C:\Users\Lwalt\.gradle\caches\transforms-1\files-1.1\documentfile-28.0.0.aar\a259e737926bcdda2be9b524cff4e76f\AndroidManifest.xml:20:5-44
MERGED from [com.android.support:localbroadcastmanager:28.0.0] C:\Users\Lwalt\.gradle\caches\transforms-1\files-1.1\localbroadcastmanager-28.0.0.aar\c1052ad825cf36c60f9aa71d11d3808e\AndroidManifest.xml:20:5-44
MERGED from [com.android.support:localbroadcastmanager:28.0.0] C:\Users\Lwalt\.gradle\caches\transforms-1\files-1.1\localbroadcastmanager-28.0.0.aar\c1052ad825cf36c60f9aa71d11d3808e\AndroidManifest.xml:20:5-44
MERGED from [com.android.support:print:28.0.0] C:\Users\Lwalt\.gradle\caches\transforms-1\files-1.1\print-28.0.0.aar\31c53d7091cc521590e682335b7a5973\AndroidManifest.xml:20:5-44
MERGED from [com.android.support:print:28.0.0] C:\Users\Lwalt\.gradle\caches\transforms-1\files-1.1\print-28.0.0.aar\31c53d7091cc521590e682335b7a5973\AndroidManifest.xml:20:5-44
MERGED from [android.arch.lifecycle:viewmodel:1.1.1] C:\Users\Lwalt\.gradle\caches\transforms-1\files-1.1\viewmodel-1.1.1.aar\92fde8d021379c993258b11c1dc4191a\AndroidManifest.xml:20:5-44
MERGED from [android.arch.lifecycle:viewmodel:1.1.1] C:\Users\Lwalt\.gradle\caches\transforms-1\files-1.1\viewmodel-1.1.1.aar\92fde8d021379c993258b11c1dc4191a\AndroidManifest.xml:20:5-44
MERGED from [com.android.support:interpolator:28.0.0] C:\Users\Lwalt\.gradle\caches\transforms-1\files-1.1\interpolator-28.0.0.aar\267397e3138df19312ec16583ecf09eb\AndroidManifest.xml:20:5-44
MERGED from [com.android.support:interpolator:28.0.0] C:\Users\Lwalt\.gradle\caches\transforms-1\files-1.1\interpolator-28.0.0.aar\267397e3138df19312ec16583ecf09eb\AndroidManifest.xml:20:5-44
MERGED from [android.arch.lifecycle:livedata:1.1.1] C:\Users\Lwalt\.gradle\caches\transforms-1\files-1.1\livedata-1.1.1.aar\67e8e8021516e503d7e51bc7079220f4\AndroidManifest.xml:20:5-44
MERGED from [android.arch.lifecycle:livedata:1.1.1] C:\Users\Lwalt\.gradle\caches\transforms-1\files-1.1\livedata-1.1.1.aar\67e8e8021516e503d7e51bc7079220f4\AndroidManifest.xml:20:5-44
MERGED from [android.arch.lifecycle:livedata-core:1.1.1] C:\Users\Lwalt\.gradle\caches\transforms-1\files-1.1\livedata-core-1.1.1.aar\ffa69a51ba5355ccedd57df867291e81\AndroidManifest.xml:20:5-44
MERGED from [android.arch.lifecycle:livedata-core:1.1.1] C:\Users\Lwalt\.gradle\caches\transforms-1\files-1.1\livedata-core-1.1.1.aar\ffa69a51ba5355ccedd57df867291e81\AndroidManifest.xml:20:5-44
MERGED from [android.arch.core:runtime:1.1.1] C:\Users\Lwalt\.gradle\caches\transforms-1\files-1.1\runtime-1.1.1.aar\83f42b40f66c44a8493b4d50c9fb64ec\AndroidManifest.xml:20:5-44
MERGED from [android.arch.core:runtime:1.1.1] C:\Users\Lwalt\.gradle\caches\transforms-1\files-1.1\runtime-1.1.1.aar\83f42b40f66c44a8493b4d50c9fb64ec\AndroidManifest.xml:20:5-44
MERGED from [androidx.exifinterface:exifinterface:1.0.0] C:\Users\Lwalt\.gradle\caches\transforms-1\files-1.1\exifinterface-1.0.0.aar\9707140ed65d01b1d4b8cead1fe0ad28\AndroidManifest.xml:20:5-44
MERGED from [androidx.exifinterface:exifinterface:1.0.0] C:\Users\Lwalt\.gradle\caches\transforms-1\files-1.1\exifinterface-1.0.0.aar\9707140ed65d01b1d4b8cead1fe0ad28\AndroidManifest.xml:20:5-44
INJECTED from C:\Users\Lwalt\workspace\3rd Year Project\Old\1. Decoder test\MLKit\quickstart-android\mlkit\app\src\main\AndroidManifest.xml
INJECTED from C:\Users\Lwalt\workspace\3rd Year Project\Old\1. Decoder test\MLKit\quickstart-android\mlkit\app\src\main\AndroidManifest.xml
	android:targetSdkVersion
		INJECTED from C:\Users\Lwalt\workspace\3rd Year Project\Old\1. Decoder test\MLKit\quickstart-android\mlkit\app\src\main\AndroidManifest.xml
		ADDED from C:\Users\Lwalt\workspace\3rd Year Project\Old\1. Decoder test\MLKit\quickstart-android\mlkit\app\src\main\AndroidManifest.xml
		INJECTED from C:\Users\Lwalt\workspace\3rd Year Project\Old\1. Decoder test\MLKit\quickstart-android\mlkit\app\src\main\AndroidManifest.xml
	android:minSdkVersion
		INJECTED from C:\Users\Lwalt\workspace\3rd Year Project\Old\1. Decoder test\MLKit\quickstart-android\mlkit\app\src\main\AndroidManifest.xml
		ADDED from C:\Users\Lwalt\workspace\3rd Year Project\Old\1. Decoder test\MLKit\quickstart-android\mlkit\app\src\main\AndroidManifest.xml
		INJECTED from C:\Users\Lwalt\workspace\3rd Year Project\Old\1. Decoder test\MLKit\quickstart-android\mlkit\app\src\main\AndroidManifest.xml
uses-permission#android.permission.ACCESS_NETWORK_STATE
ADDED from [com.google.firebase:firebase-iid:17.0.3] C:\Users\Lwalt\.gradle\caches\transforms-1\files-1.1\firebase-iid-17.0.3.aar\37576a435debdc0393958d32be61dfab\AndroidManifest.xml:22:5-79
	android:name
		ADDED from [com.google.firebase:firebase-iid:17.0.3] C:\Users\Lwalt\.gradle\caches\transforms-1\files-1.1\firebase-iid-17.0.3.aar\37576a435debdc0393958d32be61dfab\AndroidManifest.xml:22:22-76
uses-permission#android.permission.INTERNET
ADDED from [com.google.firebase:firebase-iid:17.0.3] C:\Users\Lwalt\.gradle\caches\transforms-1\files-1.1\firebase-iid-17.0.3.aar\37576a435debdc0393958d32be61dfab\AndroidManifest.xml:23:5-67
	android:name
		ADDED from [com.google.firebase:firebase-iid:17.0.3] C:\Users\Lwalt\.gradle\caches\transforms-1\files-1.1\firebase-iid-17.0.3.aar\37576a435debdc0393958d32be61dfab\AndroidManifest.xml:23:22-64
uses-permission#android.permission.WAKE_LOCK
ADDED from [com.google.firebase:firebase-iid:17.0.3] C:\Users\Lwalt\.gradle\caches\transforms-1\files-1.1\firebase-iid-17.0.3.aar\37576a435debdc0393958d32be61dfab\AndroidManifest.xml:24:5-68
	android:name
		ADDED from [com.google.firebase:firebase-iid:17.0.3] C:\Users\Lwalt\.gradle\caches\transforms-1\files-1.1\firebase-iid-17.0.3.aar\37576a435debdc0393958d32be61dfab\AndroidManifest.xml:24:22-65
uses-permission#com.google.android.c2dm.permission.RECEIVE
ADDED from [com.google.firebase:firebase-iid:17.0.3] C:\Users\Lwalt\.gradle\caches\transforms-1\files-1.1\firebase-iid-17.0.3.aar\37576a435debdc0393958d32be61dfab\AndroidManifest.xml:26:5-82
	android:name
		ADDED from [com.google.firebase:firebase-iid:17.0.3] C:\Users\Lwalt\.gradle\caches\transforms-1\files-1.1\firebase-iid-17.0.3.aar\37576a435debdc0393958d32be61dfab\AndroidManifest.xml:26:22-79
service#com.google.firebase.components.ComponentDiscoveryService
ADDED from [com.google.firebase:firebase-iid:17.0.3] C:\Users\Lwalt\.gradle\caches\transforms-1\files-1.1\firebase-iid-17.0.3.aar\37576a435debdc0393958d32be61dfab\AndroidManifest.xml:29:9-35:19
	android:exported
		ADDED from [com.google.firebase:firebase-iid:17.0.3] C:\Users\Lwalt\.gradle\caches\transforms-1\files-1.1\firebase-iid-17.0.3.aar\37576a435debdc0393958d32be61dfab\AndroidManifest.xml:31:13-37
	android:name
		ADDED from [com.google.firebase:firebase-iid:17.0.3] C:\Users\Lwalt\.gradle\caches\transforms-1\files-1.1\firebase-iid-17.0.3.aar\37576a435debdc0393958d32be61dfab\AndroidManifest.xml:30:13-84
meta-data#com.google.firebase.components:com.google.firebase.iid.Registrar
ADDED from [com.google.firebase:firebase-iid:17.0.3] C:\Users\Lwalt\.gradle\caches\transforms-1\files-1.1\firebase-iid-17.0.3.aar\37576a435debdc0393958d32be61dfab\AndroidManifest.xml:32:13-34:85
	android:value
		ADDED from [com.google.firebase:firebase-iid:17.0.3] C:\Users\Lwalt\.gradle\caches\transforms-1\files-1.1\firebase-iid-17.0.3.aar\37576a435debdc0393958d32be61dfab\AndroidManifest.xml:34:17-82
	android:name
		ADDED from [com.google.firebase:firebase-iid:17.0.3] C:\Users\Lwalt\.gradle\caches\transforms-1\files-1.1\firebase-iid-17.0.3.aar\37576a435debdc0393958d32be61dfab\AndroidManifest.xml:33:17-96
receiver#com.google.firebase.iid.FirebaseInstanceIdReceiver
ADDED from [com.google.firebase:firebase-iid:17.0.3] C:\Users\Lwalt\.gradle\caches\transforms-1\files-1.1\firebase-iid-17.0.3.aar\37576a435debdc0393958d32be61dfab\AndroidManifest.xml:37:9-44:20
	android:exported
		ADDED from [com.google.firebase:firebase-iid:17.0.3] C:\Users\Lwalt\.gradle\caches\transforms-1\files-1.1\firebase-iid-17.0.3.aar\37576a435debdc0393958d32be61dfab\AndroidManifest.xml:39:13-36
	android:permission
		ADDED from [com.google.firebase:firebase-iid:17.0.3] C:\Users\Lwalt\.gradle\caches\transforms-1\files-1.1\firebase-iid-17.0.3.aar\37576a435debdc0393958d32be61dfab\AndroidManifest.xml:40:13-73
	android:name
		ADDED from [com.google.firebase:firebase-iid:17.0.3] C:\Users\Lwalt\.gradle\caches\transforms-1\files-1.1\firebase-iid-17.0.3.aar\37576a435debdc0393958d32be61dfab\AndroidManifest.xml:38:13-78
intent-filter#action:name:com.google.android.c2dm.intent.RECEIVE
ADDED from [com.google.firebase:firebase-iid:17.0.3] C:\Users\Lwalt\.gradle\caches\transforms-1\files-1.1\firebase-iid-17.0.3.aar\37576a435debdc0393958d32be61dfab\AndroidManifest.xml:41:13-43:29
action#com.google.android.c2dm.intent.RECEIVE
ADDED from [com.google.firebase:firebase-iid:17.0.3] C:\Users\Lwalt\.gradle\caches\transforms-1\files-1.1\firebase-iid-17.0.3.aar\37576a435debdc0393958d32be61dfab\AndroidManifest.xml:42:17-81
	android:name
		ADDED from [com.google.firebase:firebase-iid:17.0.3] C:\Users\Lwalt\.gradle\caches\transforms-1\files-1.1\firebase-iid-17.0.3.aar\37576a435debdc0393958d32be61dfab\AndroidManifest.xml:42:25-78
service#com.google.firebase.iid.FirebaseInstanceIdService
ADDED from [com.google.firebase:firebase-iid:17.0.3] C:\Users\Lwalt\.gradle\caches\transforms-1\files-1.1\firebase-iid-17.0.3.aar\37576a435debdc0393958d32be61dfab\AndroidManifest.xml:50:9-56:19
	android:exported
		ADDED from [com.google.firebase:firebase-iid:17.0.3] C:\Users\Lwalt\.gradle\caches\transforms-1\files-1.1\firebase-iid-17.0.3.aar\37576a435debdc0393958d32be61dfab\AndroidManifest.xml:52:13-36
	android:name
		ADDED from [com.google.firebase:firebase-iid:17.0.3] C:\Users\Lwalt\.gradle\caches\transforms-1\files-1.1\firebase-iid-17.0.3.aar\37576a435debdc0393958d32be61dfab\AndroidManifest.xml:51:13-77
intent-filter#action:name:com.google.firebase.INSTANCE_ID_EVENT
ADDED from [com.google.firebase:firebase-iid:17.0.3] C:\Users\Lwalt\.gradle\caches\transforms-1\files-1.1\firebase-iid-17.0.3.aar\37576a435debdc0393958d32be61dfab\AndroidManifest.xml:53:13-55:29
	android:priority
		ADDED from [com.google.firebase:firebase-iid:17.0.3] C:\Users\Lwalt\.gradle\caches\transforms-1\files-1.1\firebase-iid-17.0.3.aar\37576a435debdc0393958d32be61dfab\AndroidManifest.xml:53:28-51
action#com.google.firebase.INSTANCE_ID_EVENT
ADDED from [com.google.firebase:firebase-iid:17.0.3] C:\Users\Lwalt\.gradle\caches\transforms-1\files-1.1\firebase-iid-17.0.3.aar\37576a435debdc0393958d32be61dfab\AndroidManifest.xml:54:17-80
	android:name
		ADDED from [com.google.firebase:firebase-iid:17.0.3] C:\Users\Lwalt\.gradle\caches\transforms-1\files-1.1\firebase-iid-17.0.3.aar\37576a435debdc0393958d32be61dfab\AndroidManifest.xml:54:25-77
activity#com.google.android.gms.common.api.GoogleApiActivity
ADDED from [com.google.android.gms:play-services-base:16.0.1] C:\Users\Lwalt\.gradle\caches\transforms-1\files-1.1\play-services-base-16.0.1.aar\333072febde503084cddfd8d12198ef5\AndroidManifest.xml:23:9-26:75
	android:exported
		ADDED from [com.google.android.gms:play-services-base:16.0.1] C:\Users\Lwalt\.gradle\caches\transforms-1\files-1.1\play-services-base-16.0.1.aar\333072febde503084cddfd8d12198ef5\AndroidManifest.xml:25:13-37
	android:theme
		ADDED from [com.google.android.gms:play-services-base:16.0.1] C:\Users\Lwalt\.gradle\caches\transforms-1\files-1.1\play-services-base-16.0.1.aar\333072febde503084cddfd8d12198ef5\AndroidManifest.xml:26:13-72
	android:name
		ADDED from [com.google.android.gms:play-services-base:16.0.1] C:\Users\Lwalt\.gradle\caches\transforms-1\files-1.1\play-services-base-16.0.1.aar\333072febde503084cddfd8d12198ef5\AndroidManifest.xml:24:13-79
provider#com.google.firebase.provider.FirebaseInitProvider
ADDED from [com.google.firebase:firebase-common:16.0.3] C:\Users\Lwalt\.gradle\caches\transforms-1\files-1.1\firebase-common-16.0.3.aar\989eb7f405670813dc8e815a45987a32\AndroidManifest.xml:10:9-14:39
	android:authorities
		ADDED from [com.google.firebase:firebase-common:16.0.3] C:\Users\Lwalt\.gradle\caches\transforms-1\files-1.1\firebase-common-16.0.3.aar\989eb7f405670813dc8e815a45987a32\AndroidManifest.xml:12:13-72
	android:exported
		ADDED from [com.google.firebase:firebase-common:16.0.3] C:\Users\Lwalt\.gradle\caches\transforms-1\files-1.1\firebase-common-16.0.3.aar\989eb7f405670813dc8e815a45987a32\AndroidManifest.xml:13:13-37
	android:initOrder
		ADDED from [com.google.firebase:firebase-common:16.0.3] C:\Users\Lwalt\.gradle\caches\transforms-1\files-1.1\firebase-common-16.0.3.aar\989eb7f405670813dc8e815a45987a32\AndroidManifest.xml:14:13-36
	android:name
		ADDED from [com.google.firebase:firebase-common:16.0.3] C:\Users\Lwalt\.gradle\caches\transforms-1\files-1.1\firebase-common-16.0.3.aar\989eb7f405670813dc8e815a45987a32\AndroidManifest.xml:11:13-77
meta-data#com.google.android.gms.version
ADDED from [com.google.android.gms:play-services-basement:16.1.0] C:\Users\Lwalt\.gradle\caches\transforms-1\files-1.1\play-services-basement-16.1.0.aar\fe8194374b89109341c876de3b8d197f\AndroidManifest.xml:23:9-25:69
	android:value
		ADDED from [com.google.android.gms:play-services-basement:16.1.0] C:\Users\Lwalt\.gradle\caches\transforms-1\files-1.1\play-services-basement-16.1.0.aar\fe8194374b89109341c876de3b8d197f\AndroidManifest.xml:25:13-66
	android:name
		ADDED from [com.google.android.gms:play-services-basement:16.1.0] C:\Users\Lwalt\.gradle\caches\transforms-1\files-1.1\play-services-basement-16.1.0.aar\fe8194374b89109341c876de3b8d197f\AndroidManifest.xml:24:13-58
